{"count": "286", "pages": 29, "page": 29, "list": [{"category_id": "421", "order": "0", "root": "0", "in_loyalty": "0", "sort_type": "0", "translations": {"pl_PL": {"trans_id": "434", "category_id": "421", "name": "Uchwyt Typ IPT 40", "description": "", "description_bottom": "", "active": "1", "pres_id": null, "isdefault": "0", "lang_id": "1", "seo_title": "", "seo_description": "", "seo_keywords": "", "seo_url": "", "permalink": "https://allweld.pl/pl/c/Uchwyt-Typ-IPT-40/421", "items": 10, "attribute_groups": [71, 80, 83]}}}, {"category_id": "422", "order": "5", "root": "0", "in_loyalty": "0", "sort_type": "0", "translations": {"pl_PL": {"trans_id": "435", "category_id": "422", "name": "Pozosta\u0142e Zestawy Narz\u0119dzi", "description": "", "description_bottom": "", "active": "1", "pres_id": null, "isdefault": "0", "lang_id": "1", "seo_title": "", "seo_description": "", "seo_keywords": "", "seo_url": "", "permalink": "https://allweld.pl/pl/c/Pozostale-Zestawy-Narzedzi/422", "items": 12, "attribute_groups": [80, 83]}}}, {"category_id": "423", "order": "1", "root": "0", "in_loyalty": "0", "sort_type": "0", "translations": {"pl_PL": {"trans_id": "436", "category_id": "423", "name": "GYS", "description": "", "description_bottom": "", "active": "1", "pres_id": null, "isdefault": "0", "lang_id": "1", "seo_title": "", "seo_description": "", "seo_keywords": "", "seo_url": "produkty-gys", "permalink": "https://allweld.pl/produkty-gys", "items": 0, "attribute_groups": [83]}}}, {"category_id": "424", "order": "0", "root": "0", "in_loyalty": "0", "sort_type": "0", "translations": {"pl_PL": {"trans_id": "437", "category_id": "424", "name": "SKANDIKRAFT", "description": "", "description_bottom": "", "active": "1", "pres_id": null, "isdefault": "0", "lang_id": "1", "seo_title": "", "seo_description": "", "seo_keywords": "", "seo_url": "produkty-skandikraft", "permalink": "https://allweld.pl/produkty-skandikraft", "items": 0, "attribute_groups": [83]}}}, {"category_id": "425", "order": "2", "root": "0", "in_loyalty": "0", "sort_type": "0", "translations": {"pl_PL": {"trans_id": "438", "category_id": "425", "name": "Sorbenty", "description": "<p>Maty absorbuj\u0105ce - sorbenty, kt\u00f3re natychmiastowo poch\u0142aniaj\u0105 ciecze, w tym wod\u0119, oleje, paliwa, ch\u0142odziwa. Tak naprawd\u0119, niemal wszystkie substancje, jakie masz w swoim warsztacie</p>", "description_bottom": "", "active": "1", "pres_id": null, "isdefault": "0", "lang_id": "1", "seo_title": "Maty absorbuj\u0105ce - sorbenty | Allweld.pl", "seo_description": "Maty absorbuj\u0105ce - sorbenty, kt\u00f3re natychmiastowo poch\u0142aniaj\u0105 ciecze, w tym wod\u0119, oleje, paliwa, ch\u0142odziwa", "seo_keywords": "", "seo_url": "sorbenty", "permalink": "https://allweld.pl/sorbenty", "items": 3, "attribute_groups": [80, 83]}}}, {"category_id": "426", "order": "0", "root": "1", "in_loyalty": "0", "sort_type": "0", "translations": {"pl_PL": {"trans_id": "439", "category_id": "426", "name": "Halloween 2022", "description": "", "description_bottom": "", "active": "0", "pres_id": null, "isdefault": "0", "lang_id": "1", "seo_title": "", "seo_description": "", "seo_keywords": "", "seo_url": "", "permalink": "https://allweld.pl/pl/c/Halloween-2022/426", "items": 9, "attribute_groups": []}}}]}